[SAD] Projekt 1 - Dokumentacja
…
## `summarise()` ungrouping output (override with `.groups` argument)

print(minimal_interval_data)

## # A tibble: 120 x 2
##     time seconds_count
##    <int>         <dbl>
##  1     1             2
##  2     2             1
##  3     3             0
##  4     4             0
##  5     5             0
##  6     6             0
##  7     7             0
##  8     8             0
##  9     9             0
## 10    10             0
## #  with 110 more rows
…
# ii parametry rozkladu

boundary <- as.integer(minimal_interval_metadata[2])
print(boundary)

## [1] 18

lambda <- mean(minimal_interval_data$seconds_count)
print(minimal_interval_data)

## # A tibble: 120 x 2
##     time seconds_count
##    <int>         <dbl>
##  1     1             2
##  2     2             1
##  3     3             0
##  4     4             0
##  5     5             0
##  6     6             0
##  7     7             0
##  8     8             0
##  9     9             0
## 10    10             0
## #  with 110 more rows
…
